{
  "componentes_count": 3,
  "date": "7/12/2019",
    "components": [
    {
      "name": "NOT",
      "index_on_circuit": 0,
      "x": 72,
      "y": 172
    },
    {
      "name": "NOT",
      "index_on_circuit": 1,
      "x": 72,
      "y": 262
    },
    {
      "name": "NAND",
      "index_on_circuit": 2,
      "x": 300,
      "y": 214
    }
  ],
  "connections_count": 2,
  "description": "Diseño empleando únicamente puertas NOT y NAND", 
  "time": "19:13:31",
  "title": "Puerta OR",
  "connections": [
    {
      "b_is_input": true,
      "b_index_on_circuit": 2,
      "a_pin": 0,
      "b_pin": 0,
      "a_index_on_circuit": 0,
      "a_is_input": false
    },
    {
      "b_is_input": true,
      "b_index_on_circuit": 2,
      "a_pin": 0,
      "b_pin": 1,
      "a_index_on_circuit": 1,
      "a_is_input": false
    }
  ]
}